__S0 400 0 ABS 0
__S1 7B 0 ABS 0
__S2 0 0 ABS 0
__Hintentry 0 0 CODE 0
__Lintentry 0 0 CODE 0
__size_of_EnterSleep 0 0 ABS 0
_main 32C 0 CODE 0
___sp 0 0 STACK 2
btemp 7E 0 ABS 0
start 0 0 CODE 0
__size_of_MorseTableLookup 0 0 ABS 0
__end_of_MorseTable 85 0 STRING 0
_Sentence 85 0 STRING 0
_TRISA 85 0 ABS 0
reset_vec 0 0 CODE 0
wtemp0 7E 0 ABS 0
__Hconfig 0 0 CONFIG 0
__Lconfig 0 0 CONFIG 0
__end_of__stringtab 7 0 STRING 0
__size_of_MorseInit 0 0 ABS 0
MorseTableLookup@Letter 79 0 COMMON 1
__Hram 0 0 ABS 0
__Lram 0 0 ABS 0
__end_of_MorseDisplay 3F6 0 CODE 0
__end_of_Sentence B9 0 STRING 0
__Hfunctab 0 0 ENTRY 0
__Lfunctab 0 0 ENTRY 0
_SleepMode 70 0 COMMON 1
_HLTPR1 114 0 ABS 0
__Hcommon 0 0 ABS 0
__Lcommon 0 0 ABS 0
_PIE1bits 8C 0 ABS 0
__Heeprom_data 0 0 EEDATA 3
__Leeprom_data 0 0 EEDATA 3
_LATAbits 105 0 ABS 0
___int_sp 0 0 STACK 2
_ANSELA 185 0 ABS 0
__Habs1 0 0 ABS 0
__Labs1 0 0 ABS 0
__Hsfr0 0 0 ABS 0
__Lsfr0 0 0 ABS 0
__Hsfr1 0 0 ABS 0
__Lsfr1 0 0 ABS 0
__Hsfr2 0 0 ABS 0
__Lsfr2 0 0 ABS 0
__Hsfr3 0 0 ABS 0
__Lsfr3 0 0 ABS 0
_MorseDisplay 38D 0 CODE 0
__end_of_MorseInit 33F 0 CODE 0
___stackhi 0 0 ABS 0
__Hcode 0 0 ABS 0
__Lcode 0 0 ABS 0
__end_of_MorseTableLookup 38D 0 CODE 0
__Hinit 0 0 CODE 0
__Linit 0 0 CODE 0
__end_of_main 332 0 CODE 0
__Htext 0 0 ABS 0
__Ltext 0 0 ABS 0
__size_of_Initialize 0 0 ABS 0
end_of_initialization 3FE 0 CODE 0
__end_of_EnterSleep 32C 0 CODE 0
___stacklo 0 0 ABS 0
__stringtab 1 0 STRING 0
_MorseInit 332 0 CODE 0
_SleepCycles 72 0 COMMON 1
_MorseTable 46 0 STRING 0
__Hstrings 0 0 ABS 0
__Lstrings 0 0 ABS 0
__pstrings 1 0 STRING 0
__Hbank0 0 0 ABS 0
__Lbank0 0 0 ABS 0
__Hbank1 0 0 BANK1 1
__Lbank1 0 0 BANK1 1
__Hbank2 0 0 BANK2 1
__Lbank2 0 0 BANK2 1
__Hbank3 0 0 BANK3 1
__Lbank3 0 0 BANK3 1
___latbits 0 0 ABS 0
__Hpowerup 0 0 CODE 0
__Lpowerup 0 0 CODE 0
__ptext1 332 0 CODE 0
__ptext2 38D 0 CODE 0
__ptext3 361 0 CODE 0
__ptext4 33F 0 CODE 0
__ptext5 32A 0 CODE 0
__end_of_Initialize 361 0 CODE 0
__end_of_MorseTableLengths 46 0 STRING 0
__Hclrtext 0 0 ABS 0
__Lclrtext 0 0 ABS 0
_MorseTableLengths 7 0 STRING 0
__end_of__initialization 3FE 0 CODE 0
_BaseVal 77 0 COMMON 1
__Hidloc 0 0 IDLOC 0
__Lidloc 0 0 IDLOC 0
__Hstack 0 0 STACK 2
__Lstack 0 0 STACK 2
__Hspace_0 400 0 ABS 0
__Lspace_0 0 0 ABS 0
__Hspace_1 7B 0 ABS 0
__Lspace_1 0 0 ABS 0
_MorseTableLookup 361 0 CODE 0
_EnterSleep 32A 0 CODE 0
__Hspace_2 0 0 ABS 0
__Lspace_2 0 0 ABS 0
__Hcinit 400 0 CODE 0
__Lcinit 3F6 0 CODE 0
__Hspace_3 0 0 ABS 0
__Lspace_3 0 0 ABS 0
__size_of_main 0 0 ABS 0
_Initialize 33F 0 CODE 0
_HLT1CON1 116 0 ABS 0
__HbssCOMMON 0 0 ABS 0
__LbssCOMMON 0 0 ABS 0
__pbssCOMMON 70 0 COMMON 1
_OSCCONbits 8F 0 ABS 0
_INTCONbits B 0 ABS 0
__Hend_init 1 0 CODE 0
__Lend_init 0 0 CODE 0
_MorseArray 75 0 COMMON 1
_NumRepeats 71 0 COMMON 1
__Hreset_vec 0 0 CODE 0
__Lreset_vec 0 0 CODE 0
__size_of_MorseDisplay 0 0 ABS 0
intlevel0 0 0 ENTRY 0
intlevel1 0 0 ENTRY 0
intlevel2 0 0 ENTRY 0
intlevel3 0 0 ENTRY 0
_HLT1CON0bits 115 0 ABS 0
intlevel4 0 0 ENTRY 0
intlevel5 0 0 ENTRY 0
_SentenceIndex 76 0 COMMON 1
__HcstackCOMMON 0 0 ABS 0
__LcstackCOMMON 0 0 ABS 0
_MorseArrayIndex 73 0 COMMON 1
__pcstackCOMMON 78 0 COMMON 1
start_initialization 3F6 0 CODE 0
_MorseArrayLength 74 0 COMMON 1
__Hmaintext 0 0 ABS 0
__Lmaintext 0 0 ABS 0
__pmaintext 32C 0 CODE 0
_OPTION_REGbits 81 0 ABS 0
__initialization 3F6 0 CODE 0
__stringbase 6 0 STRING 0
%segments
reset_vec 0 1 CODE 0 0
cinit 7EC 7FF CODE 7EC 0
bssCOMMON 70 7A COMMON 70 1
strings 2 171 STRING 2 0
text2 71A 7EB CODE 71A 0
text3 6C2 719 CODE 6C2 0
text4 67E 6C1 CODE 67E 0
text1 664 67D CODE 664 0
maintext 658 663 CODE 658 0
text5 654 657 CODE 654 0
%locals
dist/default/production\MorseBlink_Code.X.production.o
C:\Users\landowne\AppData\Local\Temp\s924.s
640 3F6 0 CODE 0
643 3F6 0 CODE 0
675 3F6 0 CODE 0
676 3F7 0 CODE 0
677 3F8 0 CODE 0
678 3F9 0 CODE 0
679 3FA 0 CODE 0
680 3FB 0 CODE 0
681 3FC 0 CODE 0
682 3FD 0 CODE 0
688 3FE 0 CODE 0
690 3FE 0 CODE 0
691 3FF 0 CODE 0
Main.c
41 32C 0 CODE 0
43 32C 0 CODE 0
44 32D 0 CODE 0
47 32E 0 CODE 0
48 32F 0 CODE 0
MorseTransmitter.c
144 332 0 CODE 0
146 332 0 CODE 0
147 333 0 CODE 0
148 334 0 CODE 0
149 335 0 CODE 0
150 336 0 CODE 0
151 337 0 CODE 0
152 338 0 CODE 0
155 339 0 CODE 0
156 33E 0 CODE 0
158 38D 0 CODE 0
167 38D 0 CODE 0
175 393 0 CODE 0
177 398 0 CODE 0
178 39A 0 CODE 0
182 39B 0 CODE 0
186 39B 0 CODE 0
188 3A1 0 CODE 0
189 3A2 0 CODE 0
197 3A3 0 CODE 0
199 3A8 0 CODE 0
206 3AA 0 CODE 0
209 3AE 0 CODE 0
214 3B7 0 CODE 0
216 3B8 0 CODE 0
218 3BC 0 CODE 0
221 3C0 0 CODE 0
224 3C6 0 CODE 0
225 3C8 0 CODE 0
230 3CA 0 CODE 0
234 3D3 0 CODE 0
236 3D7 0 CODE 0
242 3DB 0 CODE 0
243 3E0 0 CODE 0
250 3E1 0 CODE 0
252 3EE 0 CODE 0
256 3F2 0 CODE 0
257 3F3 0 CODE 0
261 3F5 0 CODE 0
263 361 0 CODE 0
266 362 0 CODE 0
268 36E 0 CODE 0
269 373 0 CODE 0
270 37A 0 CODE 0
271 381 0 CODE 0
274 382 0 CODE 0
275 383 0 CODE 0
280 387 0 CODE 0
281 38C 0 CODE 0
Main.c
53 33F 0 CODE 0
60 33F 0 CODE 0
66 345 0 CODE 0
67 349 0 CODE 0
68 34D 0 CODE 0
69 34F 0 CODE 0
70 350 0 CODE 0
71 351 0 CODE 0
80 354 0 CODE 0
84 356 0 CODE 0
89 35A 0 CODE 0
90 35D 0 CODE 0
91 35E 0 CODE 0
92 35F 0 CODE 0
113 360 0 CODE 0
131 32A 0 CODE 0
133 32A 0 CODE 0
134 32B 0 CODE 0
