Change Component Footprint: Designator=C1 Old Footprint=AXIAL-0.1 New Footprint=Cap_0.2_Rad
Change Component Footprint: Designator=C2 Old Footprint=CAP-0.1 POLAR New Footprint=Polar_Cap_0.2
Change Component Footprint: Designator=C3 Old Footprint=CAP-0.1 POLAR New Footprint=Polar_Cap_0.2
