Change Component Footprint: Designator=R1 Old Footprint=AXIAL-0.3 New Footprint=Axial 0.1 - Res
Change Component Footprint: Designator=R2 Old Footprint=AXIAL-0.3 New Footprint=Axial 0.1 - Res
Change Component Footprint: Designator=C1 Old Footprint=Cap_0.2_Rad New Footprint=Axial 0.1 - Res
