Removed Pin From Net: NetName=+6V Pin=C2-1
Removed Pin From Net: NetName=+3.3V Pin=C3-1
Removed Pin From Net: NetName=+6V Pin=U1-1
Removed Pin From Net: NetName=+3.3V Pin=U1-3
Change Component Footprint: Designator=R1 Old Footprint=AXIAL-0.1 New Footprint=AXIAL-0.3
Change Component Footprint: Designator=R2 Old Footprint=AXIAL-0.1 New Footprint=AXIAL-0.3
Change component parameters: Designator = "R1"; Footprint = "AXIAL-0.3"; UniqueID = "\JFFDOUGN"
Change component parameters. Clean all parameters for all variants
Change component parameters (AddParameter): Name = "Class"; Value = "Passive"; VariantName = "[No Variations]"
Change component parameters (AddParameter): Name = "Manufacturer"; Value = "Generic Components"; VariantName = "[No Variations]"
Change component parameters (AddParameter): Name = "Published"; Value = "08/06/2000"; VariantName = "[No Variations]"
Change component parameters (AddParameter): Name = "Publisher"; Value = "Altium Hobart Technology Centre"; VariantName = "[No Variations]"
Change component parameters (AddParameter): Name = "SubClass"; Value = "Resistor"; VariantName = "[No Variations]"
Change component parameters (AddParameter): Name = "Value"; Value = "1K"; VariantName = "[No Variations]"
Change component parameters: Designator = "R2"; Footprint = "AXIAL-0.3"; UniqueID = "\AGGGSFKX"
Change component parameters. Clean all parameters for all variants
Change component parameters (AddParameter): Name = "Class"; Value = "Passive"; VariantName = "[No Variations]"
Change component parameters (AddParameter): Name = "Manufacturer"; Value = "Generic Components"; VariantName = "[No Variations]"
Change component parameters (AddParameter): Name = "Published"; Value = "08/06/2000"; VariantName = "[No Variations]"
Change component parameters (AddParameter): Name = "Publisher"; Value = "Altium Hobart Technology Centre"; VariantName = "[No Variations]"
Change component parameters (AddParameter): Name = "SubClass"; Value = "Resistor"; VariantName = "[No Variations]"
Change component parameters (AddParameter): Name = "Value"; Value = "1K"; VariantName = "[No Variations]"
Added Pin To Net: NetName=+3.3V Pin=C2-1
Added Pin To Net: NetName=+6V Pin=C3-1
Added Pin To Net: NetName=+3.3V Pin=U1-1
Added Pin To Net: NetName=+6V Pin=U1-3
