Change Component Footprint: Designator=C1 Old Footprint=AXIAL-0.3 New Footprint=AXIAL-0.1
Change Component Footprint: Designator=R1 Old Footprint=AXIAL-0.3 New Footprint=AXIAL-0.1
Change Component Footprint: Designator=R2 Old Footprint=AXIAL-0.3 New Footprint=AXIAL-0.1
